[
  {"id":90,
    "uaqs_summary_short" : "More paintings with musical connections",
    "uaqs_photo" : "The_Hay_Wain_by_Hieronymus_Bosch.jpg",
    "uaqs_summary" : "Musicians appear in prominent positions in other works by the same artist, notably in the middle of the central panel of the Hay Wain Triptych. The well-known Estonian vocal group Heinavanker (which has visited Tucson on two occasions) takes its name from this painting.",
    "uaqs_link": "https://en.wikipedia.org/wiki/The_Haywain_Triptych",
    "uaqs_link_title": "The Haywain Triptych",
    "uaqs_setting_bg_attach": "bg-attachment-scroll",
    "uaqs_setting_bg_size": "bg-size-100-w",
    "view_mode" : "default"
  },
  {"id":190,
    "uaqs_summary_short" : "Join the Best Students in the Country",
    "uaqs_photo" : "uaqs_content_chunks_marquee_fw-demo-ua-0206-x3_1.jpg",
    "uaqs_summary" : "<p class=\"btn btn-default\">Watch Video</p>",
    "uaqs_link": "https://www.youtube.com/watch?v=LdZI6BVYAXY&amp;feature=youtu.be",
    "uaqs_link_title": "",
    "uaqs_setting_bg_attach": "bg-attachment-scroll",
    "uaqs_setting_bg_size": "bg-size-100-w",
    "uaqs_setting_text_bg_color": "bg-trans-white",
    "view_mode" : "uaqs_bg_img_content_right"
  },
  {"id":191,
    "uaqs_summary_short" : "",
    "uaqs_photo" : "uaqs_content_chunks_marquee_white_bg.png",
    "uaqs_summary" : "<p class=\"h2\"><span class=\"sans\"><span class=\"blue60b\">More Than 100 Majors</span></span></p><p class=\"h2\"><span class=\"blue60b\"><span class=\"lead\">Beyond employment, are you looking to design your ideal career and life? With more than 100 majors, we have the academics and faculty to help you connect what you are learning with your&nbsp;aspirations to make the world better. Coupled with outstanding tutoring, support, and engagement inside and outside the classroom, you will succeed no matter what your career plans are.</span></span></p><p><a class=\"btn btn-hollow btn-lg\" href=\"http://degreesearch.arizona.edu\" target=\"_blank\">View All Majors</a></p>",
    "uaqs_link": "",
    "uaqs_link_title": "",
    "uaqs_setting_bg_attach": "bg-attachment-scroll",
    "uaqs_setting_bg_size": "bg-size-cover",
    "uaqs_setting_text_bg_color": "",
    "view_mode" : "uaqs_bg_img_content_center"
  },
  {"id":192,
    "uaqs_summary_short" : "We have so many june bugs.",
    "uaqs_photo" : "uaqs_content_chunks_marquee_june_bugs.jpg",
    "uaqs_summary" : "<p class=\"btn btn-default\">Visit Today!</p>",
    "uaqs_link": "http://www.uainsectcollection.com/",
    "uaqs_link_title": "",
    "uaqs_setting_bg_attach": "bg-attachment-fixed",
    "uaqs_setting_bg_size": "bg-size-cover",
    "uaqs_setting_text_bg_color": "bg-trans-sky",
    "view_mode" : "uaqs_bg_img_content_left"
  },
  {"id":193,
    "uaqs_summary_short" : "We have so many june bugs.",
    "uaqs_photo" : "uaqs_content_chunks_marquee_june_bugs.jpg",
    "uaqs_summary" : "<p class=\"h2\"><span class=\"sans\"><span class=\"blue60b\">More Than 100 Majors</span></span></p><p class=\"h2\"><span class=\"blue60b\"><span class=\"lead\">Beyond employment, are you looking to design your ideal career and life? With more than 100 majors, we have the academics and faculty to help you connect what you are learning with your&nbsp;aspirations to make the world better. Coupled with outstanding tutoring, support, and engagement inside and outside the classroom, you will succeed no matter what your career plans are.</span></span></p><p><a class=\"btn btn-hollow btn-lg\" href=\"http://degreesearch.arizona.edu\" target=\"_blank\">View All Majors</a></p>",
    "uaqs_link": "http://www.uainsectcollection.com/",
    "uaqs_link_title": "Visit Today!",
    "uaqs_setting_bg_attach": "bg-attachment-fixed",
    "uaqs_setting_bg_size": "bg-size-cover",
    "uaqs_setting_text_bg_color": "bg-trans-sky",
    "view_mode" : "uaqs_bg_img_content_bottom"
  }
]